binh,$2a$10$Io8TUI6cIZWENuvx9xiia.Mdt2O23bM7j0k8Bx/p1heg35v2YE3lS
admin,$2a$10$P5uyRRozFTSGyKC65sT9/uMdrZribjxBKUw3WepURKK3s0WEPWpjK
phuc,$2a$10$p9la.iGuS0p0Av/pfAZnkO/x10nqyllN.6fES95UyprQFzP/hkOvm
ssas,$2a$10$9HWJ4UkiAeu7c8c087Xyg.Tf.BRZ13YmN5Ga.0zgL18ofGOPf99b6
ghgh,$2a$10$ygS8ZRxi.SjpTBmr./nK.OPlaFge2dsvGDrJqnXBzUbgdr9K7Rrba
trung,$2a$10$H49EHT1IuoR8oD/7CEIFkOmBXScsrG8DmkAumcvngi1aZ7XJ34TMu
